File VCD/data_stm32.vcd
$date
  2026-07-17 03:03:18
$end
$version
  Zynq Logic Analyzer Pro
$end
$timescale
  10 ns
$end
$scope module logic_analyzer $end
$var wire 1 ! CH0 $end
$var wire 1 " CH1 $end
$var wire 1 # CH2 $end
$var wire 1 $ CH3 $end
$var wire 1 % CH4 $end
$var wire 1 & CH5 $end
$var wire 1 ' CH6 $end
$var wire 1 ( CH7 $end
$upscope $end
$enddefinitions $end
$dumpvars
0!
1"
0#
1$
1%
1&
1'
1(
$end
#292
1!
#737
0!
#1160
1!
#1605
0!
#2028
1!
#2473
0!
#2896
1!
#3341
0!
#3764
1!
#4209
0!
#4632
1!
#5077
0!
#5500
1!
#5945
0!
#6368
1!
#6813
0!
#7236
1!
#7681
0!
#8104
1!
#8549
0!
#8972
1!
#9417
0!
#9840
1!
#10285
0!
#10708
1!
#11153
0!
#11576
1!
#12021
0!
#12444
1!
#12889
0!
#13312
1!
#13757
0!
#14180
1!
#14625
0!
#15048
1!
#15493
0!
#15916
1!
#16361
0!
#16784
1!
#17229
0!
#17652
1!
#18097
0!
#18520
1!
#18965
0!
#19388
1!
#19833
0!
#20256
1!
#20701
0!
#21124
1!
#21569
0!
#21992
1!
#22437
0!
#22860
1!
#23305
0!
#23728
1!
#24173
0!
#24596
1!
#25041
0!
#25464
1!
#25909
0!
#26332
1!
#26777
0!
#27200
1!
#27645
0!
#28068
1!
#28513
0!
#28936
1!
#29381
0!
#29804
1!
#30249
0!
#30672
1!
#31117
0!
#31550
0"
#31870
1#
#31916
0#
0$
#31959
1#
#32003
1$
#32004
0#
#32048
1#
#32093
0#
0$
#32137
1#
#32181
1$
#32182
0#
#32226
1#
#32271
0#
0$
#32314
1#
#32359
1$
#32360
0#
#32403
1#
#32449
0#
0$
#32492
1#
#32537
1$
#32538
0#
#32765
1"
#33327
0%
#34195
1%
#37667
0%
#39403
1%
#40271
0%
#41139
1%
#42007
0%
#42875
1%
#44611
0%
#45479
1%
#46348
0%
#48083
1%
#48952
0%
#49819
1%
#50688
0%
#51555
1%
#52424
0%
#53291
1%
#55028
0%
#58499
1%
#59368
0%
#61103
1%
#61972
0%
#62839
1%
#63708
0%
